Beam Current(%FSD) 0.315840
Terminal Voltage(MV) -0.000550
Switcher Current(A) 0.025258
Analyzer Current(A) 0.036279
Inflection Current(A) 0.000074
Radiation Monitor(%)  2.3
Screen Voltage (KV) 0.024
Water Temperature (F) 54.83
User_1 15.1977
LE Steerer 1 X (%) 0.000041
LE Steerer 1 Y (%) 0.000029
LE Steerer 2 X (%) 0.000014
LE Steerer 2 Y (%) 0.000006
HE Steerer 1 X (%) -0.000014
HE Steerer 1 Y (%) -0.000001
HE Steerer 2 X (%) 0.000017
HE Steerer 2 Y (%) 0.000054
Buncher Plate (KV) -0.005578
Buncher_Output (200) 4.713209
LE_Tube_Vacuum (TORR) 0.012305
HE_Tube_Vacuum (TORR) 0.005945
Alpha_High_Vacuum (TORR) -0.001768
Alpha_Filament_Vacuum (TORR) 7097.683105
Alpha_Extractor_Voltage (KV) -0.396452
Alpha_Extractor_Current (mA) -0.000863
Alpha_Magnet_Current (A) -0.001272
Alpha_Arc_Current (A) -0.001042
Alpha_Exchange_Voltage (KV) -0.004730
Alpha_Exchange_Current (mA) -0.006981
Alpha_Focus_Voltage (KV) -0.232720
Alpha_Focus_Current (mA) -0.177983
Alpha_Filament_Current (A) 0.338553
Tank_Pressure (PSI) 79.328941
Tank_Temperature (deg F) 67.945786
Air_Receiver (PSIG) 103.862564
Phase_Voltage_A (Volts) 123.606667
Phase_Voltage_B (Volts) 126.175667
Phase_Voltage_C (Volts) 125.677780
Alpha_Heater_Current (Amps) 0.022657
Chiller_Current 1.3573
Comfort_Chiller_Temperature (deg F) 53.034595
Up Charge Voltage(KV) 0.019085
Process_Chiller_1_Temp(F) 52.061424
Process_Chiller_2_Temp(F) 47.570564
Process_Chiller_3_Temp(F) 50.781525
LE_Extension_Vacuum(10**-6 Torr) 0.215572
SF6_V1_Filter(PSI) -5.850905
SF6_Dryer_Filter(PSI) 0.779461
SF6_V19_Filter(PSI) -0.030666
corona_grid(volts) -0.293441
slit_error(volts) 0.003320
gvm_error(volts) -0.046446
corona_current(microamps) -0.116212
corona_position(volts) 113.022476
control_mode(ohms) 1.000000
Up Charge(uA) 0.004330
column_current(microamps) 0.001040
tube_lens_current(microamps) 0.227834
tube_lens_voltage(KV) 0.018457
HE_tube_current(microamps) 0.002459
LE_tube_current(microamps) 0.104145
Up_Charge-Down_Charge(microamps) -0.012897
SP Extraction Voltage(KV) 0.000000
SP Extractor Current(mA) 0.000000
SP Target Voltage (KV) 0.000000
SP Target Current(mA) 0.000000
SP Lens Voltage(KV) 0.000000
SP Lens Current(uA) 0.000000
SP Cesium Feed (C) 0.000000
SP Cesium Reservoir (C) 0.000000
SP_Ionizer_Voltage (VAC) 0.000000
SP_Cesium_Feed_Current (AAC) 0.000000
SP_Cesium_Reservoir_Current (AAC) 0.000000
SP_Ionizer_Current (ACA) 0.000000
