Beam Current(%FSD) 0.000000
Terminal Voltage(MV) 0.000001
Switcher Current(A) 0.002103
Analyzer Current(A) 0.005898
Inflection Current(A) 0.000314
Radiation Monitor(%)  1.6
Screen Voltage (KV) 0.000
Water Temperature (F) 32.00
User_1 -0.0026
LE Steerer 1 X (%) -0.000025
LE Steerer 1 Y (%) -0.000029
LE Steerer 2 X (%) 0.000057
LE Steerer 2 Y (%) 0.000075
HE Steerer 1 X (%) -0.000199
HE Steerer 1 Y (%) -0.000176
HE Steerer 2 X (%) 0.000130
HE Steerer 2 Y (%) 0.000034
Buncher Plate (KV) -0.000013
Buncher_Output (200) -0.000558
LE_Tube_Vacuum (TORR) 0.000882
HE_Tube_Vacuum (TORR) -0.000276
Alpha_High_Vacuum (TORR) 142.770782
Alpha_Filament_Vacuum (TORR) 926.240784
Alpha_Extractor_Voltage (KV) -0.002762
Alpha_Extractor_Current (mA) -0.000012
Alpha_Magnet_Current (A) 0.000263
Alpha_Arc_Current (A) 0.000124
Alpha_Exchange_Voltage (KV) 0.000001
Alpha_Exchange_Current (mA) -0.000003
Alpha_Focus_Voltage (KV) -0.000169
Alpha_Focus_Current (mA) 0.011141
Alpha_Filament_Current (A) 0.000110
Tank_Pressure (PSI) 1.200670
Tank_Temperature (deg F) 59.180096
Air_Receiver (PSIG) 51.604591
Phase_Voltage_A (Volts) 0.001113
Phase_Voltage_B (Volts) 0.000604
Phase_Voltage_C (Volts) 0.000787
Alpha_Heater_Current (Amps) 0.000369
Chiller_Current 0.0001
Comfort_Chiller_Temperature (deg F) 47.684906
Up Charge Voltage(KV) 0.002225
Process_Chiller_1_Temp(F) -29.246155
Process_Chiller_2_Temp(F) -29.345409
Process_Chiller_3_Temp(F) -29.184206
LE_Extension_Vacuum(10**-6 Torr) 0.000010
SF6_V1_Filter(PSI) 3.758440
SF6_Dryer_Filter(PSI) 4.159757
SF6_V19_Filter(PSI) 3.941486
corona_grid(volts) -0.000003
slit_error(volts) -0.000005
gvm_error(volts) -0.000001
corona_current(microamps) 0.000034
corona_position(volts) -0.026093
control_mode(ohms) 1.000000
Up Charge(uA) 0.000216
column_current(microamps) 0.000851
tube_lens_current(microamps) -5.494716
tube_lens_voltage(KV) -0.000054
HE_tube_current(microamps) 0.006999
LE_tube_current(microamps) 5.497081
Up_Charge-Down_Charge(microamps) 5.504749
SP Extraction Voltage(KV) 0.000000
SP Extractor Current(mA) 0.000000
SP Target Voltage (KV) 0.000000
SP Target Current(mA) 0.000000
SP Lens Voltage(KV) 0.000000
SP Lens Current(uA) 0.000000
SP Cesium Feed (C) 0.000000
SP Cesium Reservoir (C) 0.000000
SP_Ionizer_Voltage (VAC) 0.000000
SP_Cesium_Feed_Current (AAC) 0.000000
SP_Cesium_Reservoir_Current (AAC) 0.000000
SP_Ionizer_Current (ACA) 0.000000
